{
  "variables": {
    "system": "unconfigured-dhcp",
    "disk_size_mb": "18432",
    "qemu_disk_format": "qcow2"
  },
  "builders": [
    {
      "type": "qemu",
      "qemu_binary": "{{user `qemu_binary`}}",
      "qemuargs": [
        [
          "-smbios",
          "type=1,uuid=955bae55-a3ea-491c-a144-b8ef357e3fa3"
        ],
        [
          "-smbios",
          "type=2,version={{ .HTTPIP }},serial={{ .HTTPPort }}"
        ]
      ],
      "headless": "true",
      "disk_size": "{{user `disk_size_mb`}}",
      "disk_interface": "virtio",
      "disk_cache": "unsafe",
      "net_device": "virtio-net-pci",
      "vm_name": "{{user `system`}}.{{user `qemu_disk_format`}}",
      "format": "{{user `qemu_disk_format`}}",
      "output_directory": "output-qemu",
      "iso_url": "./ephemeral/installercore.iso",
      "iso_checksum": "none",
      "boot_wait": "5s",
      "boot_command": "<enter><wait20s>root<enter>mkdir -p /root/.ssh<enter>curl -o /root/.ssh/authorized_keys http://{{ .HTTPIP }}:{{ .HTTPPort }}/install-key.pub<enter>",
      "http_directory": "./http_files",
      "shutdown_command": "poweroff",
      "ssh_timeout": "10m",
      "ssh_username": "root",
      "ssh_private_key_file": "./ephemeral/install-key"
    }
  ],
  "provisioners": [
    {
      "type": "shell",
      "inline": [
        "/usr/lib/untrustedhost/scripts/fs-layout.sh -W",
        "curl http://${PACKER_HTTP_ADDR}/dhcpsrv.tar | tar xpf - -C /mnt/sysimage",
        "rsync -av /tmp/overlay/ /mnt/sysimage/",
        "mount -o bind /dev /mnt/sysimage/dev",
        "mount -o bind /proc /mnt/sysimage/proc",
        "mount -o bind /sys /mnt/sysimage/sys",
        "chroot /mnt/sysimage /usr/lib/untrustedhost/scripts/finalize.sh || true",
        "chroot /mnt/sysimage /usr/lib/untrustedhost/scripts/generate-initrd.sh",
        "chroot /mnt/sysimage env CONFIG_SERIAL_INSTALL=0 /usr/lib/untrustedhost/scripts/install-bootloader.sh",
        "chroot /mnt/sysimage usermod -p '$1$fc735571$QzodlKehkT8J80RWmbn/j0' root"
      ]
    }
  ],
  "post-processors": [
    {
      "output": "manifests/{{user `system`}}.json",
      "type": "manifest"
    }
  ]
}
